sim/pipower.vcd
$timescale 10ns $end
$scope module logic $end
$var wire 1 ! PIN_POWER $end
$var wire 1 " PIN_USB $end
$var wire 1 # PIN_EN $end
$var wire 1 $ PIN_SHUTDOWN $end
$var wire 1 % PIN_BOOT $end
$var wire 8 & STATE $end
$upscope $end
$enddefinitions $end
$dumpvars
x!
x"
x#
x$
x%
bxxxxxxxx &
$end
#2900
b00000000 &
#27300
0#
0$
#58000
1!
0"
0%
#80400
1%
#89700
b00000000 &
#118000
b00000000 &
#121700
b00001011 &
#122700
b00001011 &
#151000
b00001011 &
#153400
b00001100 &
#154400
b00001100 &
#182700
b00001100 &
#199500
b00001110 &
#207000
b00001110 &
#235300
b00001110 &
#244000
b00001110 &
#272300
b00001110 &
#281000
b00001110 &
#315000
b00001110 &
#323700
b00001110 &
#352000
b00001110 &
#360700
b00001110 &
#389000
b00001110 &
#403400
b00001110 &
#431700
b00001110 &
#440400
b00001110 &
#468700
b00001110 &
#477400
b00001110 &
#511400
b00001110 &
#520100
b00001110 &
#548400
b00001110 &
#557100
b00001110 &
#585400
b00001110 &
#594100
b00001110 &
#628100
b00001110 &
#636800
b00001110 &
#665100
b00001110 &
#673800
b00001110 &
#702100
b00001110 &
#716500
b00001110 &
#744800
b00001110 &
#753500
b00001110 &
#781800
b00001110 &
#790500
b00001110 &
#824500
b00001110 &
#833200
b00001110 &
#861500
b00001110 &
#870200
b00001110 &
#898500
b00001110 &
#912900
b00001110 &
#941200
b00001110 &
#949900
b00001110 &
#978200
b00001110 &
#986900
b00001110 &
#1020900
b00001110 &
#1029600
b00001110 &
#1057900
b00001110 &
#1066600
b00001110 &
#1094900
b00001110 &
#1103600
b00001110 &
#1140300
b00001110 &
#1149000
b00001110 &
#1177300
b00001110 &
#1186000
b00001110 &
#1214300
b00001110 &
#1228700
b00001110 &
#1257000
b00001110 &
#1265700
b00001110 &
#1294000
b00001110 &
#1302700
b00001110 &
#1336700
b00001110 &
#1345400
b00001110 &
#1373700
b00001110 &
#1382400
b00001110 &
#1410700
b00001110 &
#1425100
b00001110 &
#1453400
b00001110 &
#1462100
b00001110 &
#1490400
b00001110 &
#1499100
b00001110 &
#1533100
b00001110 &
#1541800
b00001110 &
#1570100
b00001110 &
#1578800
b00001110 &
#1607100
b00001110 &
#1615800
b00001110 &
#1649800
b00001110 &
#1658500
b00001110 &
#1686800
b00001110 &
#1695500
b00001110 &
#1723800
b00001110 &
#1738200
b00001110 &
#1766500
b00001110 &
#1775200
b00001110 &
#1803500
b00001110 &
#1812200
b00001110 &
#1846200
b00001110 &
#1854900
b00001110 &
#1883200
b00001110 &
#1891900
b00001110 &
#1920200
b00001110 &
#1928900
b00001110 &
#1962900
b00001110 &
#1971600
b00001110 &
#1999900
b00001110 &
#2008600
b00001110 &
#2042600
b00001110 &
#2051300
b00001110 &
#2079600
b00001110 &
#2088300
b00001110 &
#2116600
b00001110 &
#2125300
b00001110 &
#2162000
b00001110 &
#2170700
b00001110 &
#2199000
b00001110 &
#2207700
b00001110 &
#2236000
b00001110 &
#2250400
b00001110 &
#2278700
b00001110 &
#2287400
b00001110 &
#2315700
b00001110 &
#2324400
b00001110 &
#2358400
b00001110 &
#2367100
b00001110 &
#2395400
b00001110 &
#2404100
b00001110 &
#2432400
b00001110 &
#2441100
b00001110 &
#2475100
b00001110 &
#2483800
b00001110 &
#2512100
b00001110 &
#2520800
b00001110 &
#2554800
b00001110 &
#2563500
b00001110 &
#2591800
b00001110 &
#2600500
b00001110 &
#2628800
b00001110 &
#2637500
b00001110 &
#2671500
b00001110 &
#2680200
b00001110 &
#2708500
b00001110 &
#2717200
b00001110 &
#2745500
b00001110 &
#2759900
b00001110 &
#2788200
b00001110 &
#2796900
b00001110 &
#2825200
b00001110 &
#2833900
b00001110 &
#2867900
b00001110 &
#2876600
b00001110 &
#2904900
b00001110 &
#2913600
b00001110 &
#2941900
b00001110 &
#2950600
b00001110 &
#2984600
b00001110 &
#2993300
b00001110 &
#3021600
b00001110 &
#3030300
b00001110 &
#3064300
b00001110 &
#3073000
b00001110 &
#3101300
b00001110 &
#3110000
b00001110 &
#3138300
b00001110 &
#3147000
b00001110 &
#3183700
b00001110 &
#3192400
b00001110 &
#3220700
b00001110 &
#3229400
b00001110 &
#3257700
b00001110 &
#3272100
b00001110 &
#3300400
b00001110 &
#3309100
b00001110 &
#3337400
b00001110 &
#3346100
b00001110 &
#3380100
b00001110 &
#3388800
b00001110 &
#3417100
b00001110 &
#3425800
b00001110 &
#3454100
b00001110 &
#3462800
b00001110 &
#3496800
b00001110 &
#3505500
b00001110 &
#3533800
b00001110 &
#3542500
b00001110 &
#3576500
b00001110 &
#3585200
b00001110 &
#3613500
b00001110 &
#3622200
b00001110 &
#3650500
b00001110 &
#3659200
b00001110 &
#3693200
b00001110 &
#3701900
b00001110 &
#3730200
b00001110 &
#3738900
b00001110 &
#3767200
b00001110 &
#3781600
b00001110 &
#3809900
b00001110 &
#3818600
b00001110 &
#3846900
b00001110 &
#3855600
b00001110 &
#3889600
b00001110 &
#3898300
b00001110 &
#3926600
b00001110 &
#3935300
b00001110 &
#3963600
b00001110 &
#3972300
b00001110 &
#4006300
b00001110 &
#4015000
b00001110 &
#4043300
b00001110 &
#4052000
b00001110 &
#4080300
b00001110 &
#4094700
b00001110 &
#4123000
b00001110 &
#4131700
b00001110 &
#4160000
b00001110 &
#4168700
b00001110 &
#4202700
b00001110 &
#4211400
b00001110 &
#4242400
b00001110 &
#4251100
b00001110 &
#4279400
b00001110 &
#4293800
b00001110 &
#4322100
b00001110 &
#4330800
b00001110 &
#4359100
b00001110 &
#4367800
b00001110 &
#4401800
b00001110 &
#4410500
b00001110 &
#4438800
b00001110 &
#4447500
b00001110 &
#4475800
b00001110 &
#4484500
b00001110 &
#4518500
b00001110 &
#4527200
b00001110 &
#4555500
b00001110 &
#4564200
b00001110 &
#4592500
b00001110 &
#4606900
b00001110 &
#4635200
b00001110 &
#4643900
b00001110 &
#4672200
b00001110 &
#4680900
b00001110 &
#4714900
b00001110 &
#4723600
b00001110 &
#4751900
b00001110 &
#4760600
b00001110 &
#4788900
b00001110 &
#4797600
b00001110 &
#4831600
b00001110 &
#4840300
b00001110 &
#4868600
b00001110 &
#4877300
b00001110 &
#4911300
b00001110 &
#4920000
b00001110 &
#4948300
b00001110 &
#4957000
b00001110 &
#4985300
b00001110 &
#4994000
b00001110 &
#5028000
b00001110 &
#5036700
b00001110 &
#5065000
b00001110 &
#5073700
b00001110 &
#5102000
b00001110 &
#5116400
b00001110 &
#5144700
b00001110 &
#5153400
b00001110 &
#5181700
b00001110 &
#5190400
b00001110 &
#5224400
b00001110 &
#5233100
b00001110 &
#5264100
b00001110 &
#5272800
b00001110 &
#5301100
b00001110 &
#5309800
b00001110 &
#5343800
b00001110 &
#5352500
b00001110 &
#5380800
b00001110 &
#5389500
b00001110 &
#5423500
b00001110 &
#5432200
b00001110 &
#5460500
b00001110 &
#5469200
b00001110 &
#5497500
b00001110 &
#5506200
b00001110 &
#5540200
b00001110 &
#5548900
b00001110 &
#5577200
b00001110 &
#5585900
b00001110 &
#5614200
b00001110 &
#5628600
b00001110 &
#5656900
b00001110 &
#5665600
b00001110 &
#5693900
b00001110 &
#5702600
b00001110 &
#5736600
b00001110 &
#5745300
b00001110 &
#5773600
b00001110 &
#5782300
b00001110 &
#5810600
b00001110 &
#5819300
b00001110 &
#5853300
b00001110 &
#5862000
b00001110 &
#5890300
b00001110 &
#5899000
b00001110 &
#5933000
b00001110 &
#5941700
b00001110 &
#5970000
b00001110 &
#5978700
b00001110 &
#6007000
b00001110 &
#6015700
b00001110 &
#6049700
b00001110 &
#6058400
b00001110 &
#6086700
b00001110 &
#6095400
b00001110 &
#6123700
b00001110 &
#6138100
b00001110 &
#6166400
b00001110 &
#6175100
b00001110 &
#6203400
b00001110 &
#6212100
b00001110 &
#6246100
b00001110 &
#6254800
b00001110 &
#6285800
b00001110 &
#6294500
b00001110 &
#6322800
b00001110 &
#6331500
b00001110 &
#6365500
b00001110 &
#6374200
b00001110 &
#6402500
b00001110 &
#6411200
b00001110 &
#6445200
b00001110 &
#6453900
b00001110 &
#6482200
b00001110 &
#6490900
b00001110 &
#6519200
b00001110 &
#6527900
b00001110 &
#6561900
b00001110 &
#6570600
b00001110 &
#6598900
b00001110 &
#6607600
b00001110 &
#6635900
b00001110 &
#6650300
b00001110 &
#6678600
b00001110 &
#6687300
b00001110 &
#6715600
b00001110 &
#6724300
b00001110 &
#6758300
b00001110 &
#6767000
b00001110 &
#6795300
b00001110 &
#6804000
b00001110 &
#6832300
b00001110 &
#6841000
b00001110 &
#6875000
b00001110 &
#6883700
b00001110 &
#6912000
b00001110 &
#6920700
b00001110 &
#6954700
b00001110 &
#6963400
b00001110 &
#6991700
b00001110 &
#7000400
b00001110 &
#7028700
b00001110 &
#7037400
b00001110 &
#7071400
b00001110 &
#7080100
b00001110 &
#7108400
b00001110 &
#7117100
b00001110 &
#7145400
b00001110 &
#7159800
b00001110 &
#7188100
b00001110 &
#7196800
b00001110 &
#7225100
b00001110 &
#7233800
b00001110 &
#7267800
b00001110 &
#7276500
b00001110 &
#7307500
b00001110 &
#7316200
b00001110 &
#7344500
b00001110 &
#7353200
b00001110 &
#7387200
b00001110 &
#7395900
b00001110 &
#7424200
b00001110 &
#7432900
b00001110 &
#7466900
b00001110 &
#7475600
b00001110 &
#7503900
b00001110 &
#7512600
b00001110 &
#7540900
b00001110 &
#7549600
b00001110 &
#7583600
b00001110 &
#7592300
b00001110 &
#7620600
b00001110 &
#7629300
b00001110 &
#7657600
b00001110 &
#7672000
b00001110 &
#7700300
b00001110 &
#7709000
b00001110 &
#7737300
b00001110 &
#7746000
b00001110 &
#7780000
b00001110 &
#7788700
b00001110 &
#7817000
b00001110 &
#7825700
b00001110 &
#7854000
b00001110 &
#7862700
b00001110 &
#7896700
b00001110 &
#7905400
b00001110 &
#7933700
b00001110 &
#7942400
b00001110 &
#7970700
b00001110 &
#7985100
b00001110 &
#8013400
b00001110 &
#8022100
b00001110 &
#8050400
b00001110 &
#8059100
b00001110 &
#8093100
b00001110 &
#8101800
b00001110 &
#8130100
b00001110 &
#8138800
b00001110 &
#8167100
b00001110 &
#8175800
b00001110 &
#8209800
b00001110 &
#8218500
b00001110 &
#8246800
b00001110 &
#8255500
b00001110 &
#8289500
b00001110 &
#8298200
b00001110 &
#8329200
b00001110 &
#8337900
b00001110 &
#8366200
b00001110 &
#8374900
b00001110 &
#8408900
b00001110 &
#8417600
b00001110 &
#8445900
b00001110 &
#8454600
b00001110 &
#8482900
b00001110 &
#8497300
b00001110 &
#8525600
b00001110 &
#8534300
b00001110 &
#8562600
b00001110 &
#8571300
b00001110 &
#8605300
b00001110 &
#8614000
b00001110 &
#8642300
b00001110 &
#8651000
b00001110 &
#8679300
b00001110 &
#8688000
b00001110 &
#8722000
b00001110 &
#8730700
b00001110 &
#8759000
b00001110 &
#8767700
b00001110 &
#8801700
b00001110 &
#8810400
b00001110 &
#8838700
b00001110 &
#8847400
b00001110 &
#8875700
b00001110 &
#8884400
b00001110 &
#8918400
b00001110 &
#8927100
b00001110 &
#8955400
b00001110 &
#8964100
b00001110 &
#8992400
b00001110 &
#9006800
b00001110 &
#9035100
b00001110 &
#9043800
b00001110 &
#9072100
b00001110 &
#9080800
b00001110 &
#9114800
b00001110 &
#9123500
b00001110 &
#9151800
b00001110 &
#9160500
b00001110 &
#9188800
b00001110 &
#9197500
b00001110 &
#9231500
b00001110 &
#9240200
b00001110 &
#9268500
b00001110 &
#9277200
b00001110 &
#9311200
b00001110 &
#9319900
b00001110 &
#9350900
b00001110 &
#9359600
b00001110 &
#9387900
b00001110 &
#9396600
b00001110 &
#9430600
b00001110 &
#9439300
b00001110 &
#9467600
b00001110 &
#9476300
b00001110 &
#9504600
b00001110 &
#9519000
b00001110 &
#9547300
b00001110 &
#9556000
b00001110 &
#9584300
b00001110 &
#9593000
b00001110 &
#9627000
b00001110 &
#9635700
b00001110 &
#9664000
b00001110 &
#9672700
b00001110 &
#9701000
b00001110 &
#9709700
b00001110 &
#9743700
b00001110 &
#9752400
b00001110 &
#9780700
b00001110 &
#9789400
b00001110 &
#9823400
b00001110 &
#9832100
b00001110 &
#9860400
b00001110 &
#9869100
b00001110 &
#9897400
b00001110 &
#9906100
b00001110 &
#9940100
b00001110 &
#9948800
b00001110 &
#9977100
b00001110 &
#9985800
b00001110 &
#10014100
b00001110 &
#10028500
b00001110 &
#10056800
b00001110 &
#10065500
b00001110 &
#10093800
b00001110 &
#10102500
b00001110 &
#10136500
b00001110 &
#10145200
b00001110 &
#10173500
b00001110 &
#10182200
b00001110 &
#10210500
b00001110 &
#10219200
b00001110 &
#10253200
b00001110 &
#10261900
b00001110 &
#10290200
b00001110 &
#10298900
b00001110 &
#10327200
b00001110 &
#10341600
b00001110 &
#10372600
b00001110 &
#10381300
b00001110 &
#10385800
1"
#10409500
b00001110 &
#10418000
b00000011 &
#10419000
b00000011 &
#10452900
b00000011 &
#10454500
1#
#10455000
b00000100 &
#10456000
b00000100 &
#10484200
b00000100 &
#10487600
b00000101 &
#10488600
b00000101 &
#10516800
b00000101 &
#10524000
b00000101 &
#10557900
b00000101 &
#10565100
b00000101 &
#10593300
b00000101 &
#10600500
b00000101 &
#10628700
b00000101 &
#10641600
b00000101 &
#10669800
b00000101 &
#10677000
b00000101 &
#10705200
b00000101 &
#10712400
b00000101 &
#10746300
b00000101 &
#10753500
b00000101 &
#10781700
b00000101 &
#10788900
b00000101 &
#10817100
b00000101 &
#10824300
b00000101 &
#10858200
b00000101 &
#10865400
b00000101 &
#10893600
b00000101 &
#10900800
b00000101 &
#10929000
b00000101 &
#10936200
b00000101 &
#10970100
b00000101 &
#10977300
b00000101 &
#11005500
b00000101 &
#11012700
b00000101 &
#11040900
b00000101 &
#11053800
b00000101 &
#11082000
b00000101 &
#11089200
b00000101 &
#11117400
b00000101 &
#11124600
b00000101 &
#11158500
b00000101 &
#11165700
b00000101 &
#11193900
b00000101 &
#11201100
b00000101 &
#11229300
b00000101 &
#11236500
b00000101 &
#11270400
b00000101 &
#11277600
b00000101 &
#11305800
b00000101 &
#11313000
b00000101 &
#11341200
b00000101 &
#11348400
b00000101 &
#11385000
b00000101 &
#11392200
b00000101 &
#11420400
b00000101 &
#11427600
b00000101 &
#11461500
b00000101 &
#11468700
b00000101 &
#11496900
b00000101 &
#11504100
b00000101 &
#11532300
b00000101 &
#11539500
b00000101 &
#11573400
b00000101 &
#11580600
b00000101 &
#11608800
b00000101 &
#11616000
b00000101 &
#11644200
b00000101 &
#11651400
b00000101 &
#11685300
b00000101 &
#11692500
b00000101 &
#11720700
b00000101 &
#11727900
b00000101 &
#11756100
b00000101 &
#11769000
b00000101 &
#11797200
b00000101 &
#11804400
b00000101 &
#11832600
b00000101 &
#11839800
b00000101 &
#11873700
b00000101 &
#11880900
b00000101 &
#11909100
b00000101 &
#11916300
b00000101 &
#11944500
b00000101 &
#11951700
b00000101 &
#11985600
b00000101 &
#11992800
b00000101 &
#12021000
b00000101 &
#12028200
b00000101 &
#12056400
b00000101 &
#12063600
b00000101 &
#12097500
b00000101 &
#12104700
b00000101 &
#12132900
b00000101 &
#12140100
b00000101 &
#12168300
b00000101 &
#12181200
b00000101 &
#12209400
b00000101 &
#12216600
b00000101 &
#12244800
b00000101 &
#12252000
b00000101 &
#12285900
b00000101 &
#12293100
b00000101 &
#12321300
b00000101 &
#12328500
b00000101 &
#12356700
b00000101 &
#12363900
b00000101 &
#12400500
b00000101 &
#12407700
b00000101 &
#12435900
b00000101 &
#12443100
b00000101 &
#12471300
b00000101 &
#12484200
b00000101 &
#12512400
b00000101 &
#12519600
b00000101 &
#12547800
b00000101 &
#12555000
b00000101 &
#12588900
b00000101 &
#12596100
b00000101 &
#12624300
b00000101 &
#12631500
b00000101 &
#12659700
b00000101 &
#12666900
b00000101 &
#12700800
b00000101 &
#12708000
b00000101 &
#12736200
b00000101 &
#12743400
b00000101 &
#12771600
b00000101 &
#12778800
b00000101 &
#12812700
b00000101 &
#12819900
b00000101 &
#12848100
b00000101 &
#12855300
b00000101 &
#12883500
b00000101 &
#12896400
b00000101 &
#12924600
b00000101 &
#12931800
b00000101 &
#12960000
b00000101 &
#12967200
b00000101 &
#13001100
b00000101 &
#13008300
b00000101 &
#13036500
b00000101 &
#13043700
b00000101 &
#13071900
b00000101 &
#13079100
b00000101 &
#13113000
b00000101 &
#13120200
b00000101 &
#13148400
b00000101 &
#13155600
b00000101 &
#13183800
b00000101 &
#13191000
b00000101 &
#13224900
b00000101 &
#13232100
b00000101 &
#13260300
b00000101 &
#13267500
b00000101 &
#13295700
b00000101 &
#13308600
b00000101 &
#13336800
b00000101 &
#13344000
b00000101 &
#13372200
b00000101 &
#13379400
b00000101 &
#13413300
b00000101 &
#13420500
b00000101 &
#13451400
b00000101 &
#13458600
b00000101 &
#13486800
b00000101 &
#13494000
b00000101 &
#13527900
b00000101 &
#13535100
b00000101 &
#13563300
b00000101 &
#13570500
b00000101 &
#13598700
b00000101 &
#13611600
b00000101 &
#13639800
b00000101 &
#13647000
b00000101 &
#13675200
b00000101 &
#13682400
b00000101 &
#13716300
b00000101 &
#13723500
b00000101 &
#13751700
b00000101 &
#13758900
b00000101 &
#13787100
b00000101 &
#13794300
b00000101 &
#13828200
b00000101 &
#13835400
b00000101 &
#13863600
b00000101 &
#13870800
b00000101 &
#13899000
b00000101 &
#13906200
b00000101 &
#13940100
b00000101 &
#13947300
b00000101 &
#13975500
b00000101 &
#13982700
b00000101 &
#14010900
b00000101 &
#14023800
b00000101 &
#14052000
b00000101 &
#14059200
b00000101 &
#14087400
b00000101 &
#14094600
b00000101 &
#14128500
b00000101 &
#14135700
b00000101 &
#14163900
b00000101 &
#14171100
b00000101 &
#14199300
b00000101 &
#14206500
b00000101 &
#14240400
b00000101 &
#14247600
b00000101 &
#14275800
b00000101 &
#14283000
b00000101 &
#14311200
b00000101 &
#14318400
b00000101 &
#14352300
b00000101 &
#14359500
b00000101 &
#14387700
b00000101 &
#14394900
b00000101 &
#14423100
b00000101 &
#14436000
b00000101 &
#14466900
b00000101 &
#14474100
b00000101 &
#14502300
b00000101 &
#14509500
b00000101 &
#14543400
b00000101 &
#14550600
b00000101 &
#14578800
b00000101 &
#14586000
b00000101 &
#14614200
b00000101 &
#14621400
b00000101 &
#14655300
b00000101 &
#14662500
b00000101 &
#14690700
b00000101 &
#14697900
b00000101 &
#14726100
b00000101 &
#14739000
b00000101 &
#14767200
b00000101 &
#14774400
b00000101 &
#14802600
b00000101 &
#14809800
b00000101 &
#14843700
b00000101 &
#14850900
b00000101 &
#14879100
b00000101 &
#14886300
b00000101 &
#14914500
b00000101 &
#14921700
b00000101 &
#14955600
b00000101 &
#14962800
b00000101 &
#14991000
b00000101 &
#14998200
b00000101 &
#15026400
b00000101 &
#15033600
b00000101 &
#15067500
b00000101 &
#15074700
b00000101 &
#15102900
b00000101 &
#15110100
b00000101 &
#15138300
b00000101 &
#15151200
b00000101 &
#15179400
b00000101 &
#15186600
b00000101 &
#15214800
b00000101 &
#15222000
b00000101 &
#15255900
b00000101 &
#15263100
b00000101 &
#15291300
b00000101 &
#15298500
b00000101 &
#15326700
b00000101 &
#15333900
b00000101 &
#15367800
b00000101 &
#15375000
b00000101 &
#15403200
b00000101 &
#15410400
b00000101 &
#15438600
b00000101 &
#15445800
b00000101 &
#15482400
b00000101 &
#15489600
b00000101 &
#15517800
b00000101 &
#15525000
b00000101 &
#15558900
b00000101 &
#15566100
b00000101 &
#15594300
b00000101 &
#15601500
b00000101 &
#15629700
b00000101 &
#15636900
b00000101 &
#15670800
b00000101 &
#15678000
b00000101 &
#15706200
b00000101 &
#15713400
b00000101 &
#15741600
b00000101 &
#15748800
b00000101 &
#15782700
b00000101 &
#15789900
b00000101 &
#15818100
b00000101 &
#15825300
b00000101 &
#15853500
b00000101 &
#15866400
b00000101 &
#15894600
b00000101 &
#15901800
b00000101 &
#15930000
b00000101 &
#15937200
b00000101 &
#15971100
b00000101 &
#15978300
b00000101 &
#16006500
b00000101 &
#16013700
b00000101 &
#16041900
b00000101 &
#16049100
b00000101 &
#16083000
b00000101 &
#16090200
b00000101 &
#16118400
b00000101 &
#16125600
b00000101 &
#16153800
b00000101 &
#16161000
b00000101 &
#16194900
b00000101 &
#16202100
b00000101 &
#16230300
b00000101 &
#16237500
b00000101 &
#16265700
b00000101 &
#16278600
b00000101 &
#16306800
b00000101 &
#16314000
b00000101 &
#16342200
b00000101 &
#16349400
b00000101 &
#16383300
b00000101 &
#16390500
b00000101 &
#16418700
b00000101 &
#16425900
b00000101 &
#16454100
b00000101 &
#16461300
b00000101 &
#16497900
b00000101 &
#16505100
b00000101 &
#16533300
b00000101 &
#16540500
b00000101 &
#16568700
b00000101 &
#16581600
b00000101 &
#16609800
b00000101 &
#16617000
b00000101 &
#16645200
b00000101 &
#16652400
b00000101 &
#16686300
b00000101 &
#16693500
b00000101 &
#16721700
b00000101 &
#16728900
b00000101 &
#16757100
b00000101 &
#16764300
b00000101 &
#16798200
b00000101 &
#16805400
b00000101 &
#16833600
b00000101 &
#16840800
b00000101 &
#16869000
b00000101 &
#16876200
b00000101 &
#16910100
b00000101 &
#16917300
b00000101 &
#16945500
b00000101 &
#16952700
b00000101 &
#16980900
b00000101 &
#16993800
b00000101 &
#17022000
b00000101 &
#17029200
b00000101 &
#17057400
b00000101 &
#17064600
b00000101 &
#17098500
b00000101 &
#17105700
b00000101 &
#17133900
b00000101 &
#17141100
b00000101 &
#17169300
b00000101 &
#17176500
b00000101 &
#17210400
b00000101 &
#17217600
b00000101 &
#17245800
b00000101 &
#17253000
b00000101 &
#17281200
b00000101 &
#17288400
b00000101 &
#17322300
b00000101 &
#17329500
b00000101 &
#17357700
b00000101 &
#17364900
b00000101 &
#17393100
b00000101 &
#17406000
b00000101 &
#17434200
b00000101 &
#17441400
b00000101 &
#17469600
b00000101 &
#17476800
b00000101 &
#17510700
b00000101 &
#17517900
b00000101 &
#17548800
b00000101 &
#17556000
b00000101 &
#17584200
b00000101 &
#17591400
b00000101 &
#17625300
b00000101 &
#17632500
b00000101 &
#17660700
b00000101 &
#17667900
b00000101 &
#17696100
b00000101 &
#17709000
b00000101 &
#17737200
b00000101 &
#17744400
b00000101 &
#17772600
b00000101 &
#17779800
b00000101 &
#17813700
b00000101 &
#17820900
b00000101 &
#17849100
b00000101 &
#17856300
b00000101 &
#17884500
b00000101 &
#17891700
b00000101 &
#17925600
b00000101 &
#17932800
b00000101 &
#17961000
b00000101 &
#17968200
b00000101 &
#17996400
b00000101 &
#18003600
b00000101 &
#18037500
b00000101 &
#18044700
b00000101 &
#18072900
b00000101 &
#18080100
b00000101 &
#18108300
b00000101 &
#18121200
b00000101 &
#18149400
b00000101 &
#18156600
b00000101 &
#18184800
b00000101 &
#18192000
b00000101 &
#18225900
b00000101 &
#18233100
b00000101 &
#18261300
b00000101 &
#18268500
b00000101 &
#18296700
b00000101 &
#18303900
b00000101 &
#18337800
b00000101 &
#18345000
b00000101 &
#18373200
b00000101 &
#18380400
b00000101 &
#18408600
b00000101 &
#18415800
b00000101 &
#18449700
b00000101 &
#18456900
b00000101 &
#18485100
b00000101 &
#18492300
b00000101 &
#18526200
b00000101 &
#18533400
b00000101 &
#18564300
b00000101 &
#18571500
b00000101 &
#18599700
b00000101 &
#18606900
b00000101 &
#18640800
b00000101 &
#18648000
b00000101 &
#18676200
b00000101 &
#18683400
b00000101 &
#18711600
b00000101 &
#18718800
b00000101 &
#18752700
b00000101 &
#18759900
b00000101 &
#18788100
b00000101 &
#18795300
b00000101 &
#18823500
b00000101 &
#18836400
b00000101 &
#18864600
b00000101 &
#18871800
b00000101 &
#18900000
b00000101 &
#18907200
b00000101 &
#18941100
b00000101 &
#18948300
b00000101 &
#18976500
b00000101 &
#18983700
b00000101 &
#19011900
b00000101 &
#19019100
b00000101 &
#19053000
b00000101 &
#19060200
b00000101 &
#19088400
b00000101 &
#19095600
b00000101 &
#19123800
b00000101 &
#19131000
b00000101 &
#19164900
b00000101 &
#19172100
b00000101 &
#19200300
b00000101 &
#19207500
b00000101 &
#19235700
b00000101 &
#19248600
b00000101 &
#19276800
b00000101 &
#19284000
b00000101 &
#19312200
b00000101 &
#19319400
b00000101 &
#19353300
b00000101 &
#19360500
b00000101 &
#19388700
b00000101 &
#19395900
b00000101 &
#19424100
b00000101 &
#19431300
b00000101 &
#19465200
b00000101 &
#19472400
b00000101 &
#19500600
b00000101 &
#19507800
b00000101 &
#19536000
b00000101 &
#19543200
b00000101 &
#19579800
b00000101 &
#19587000
b00000101 &
#19615200
b00000101 &
#19622400
b00000101 &
#19656300
b00000101 &
#19663500
b00000101 &
#19691700
b00000101 &
#19698900
b00000101 &
#19727100
b00000101 &
#19734300
b00000101 &
#19768200
b00000101 &
#19775400
b00000101 &
#19803600
b00000101 &
#19810800
b00000101 &
#19839000
b00000101 &
#19846200
b00000101 &
#19880100
b00000101 &
#19887300
b00000101 &
#19915500
b00000101 &
#19922700
b00000101 &
#19950900
b00000101 &
#19963800
b00000101 &
#19992000
b00000101 &
#19999200
b00000101 &
#20027400
b00000101 &
#20034600
b00000101 &
#20068500
b00000101 &
#20075700
b00000101 &
#20103900
b00000101 &
#20111100
b00000101 &
#20139300
b00000101 &
#20146500
b00000101 &
#20180400
b00000101 &
#20187600
b00000101 &
#20215800
b00000101 &
#20223000
b00000101 &
#20251200
b00000101 &
#20258400
b00000101 &
#20292300
b00000101 &
#20299500
b00000101 &
#20327700
b00000101 &
#20334900
b00000101 &
#20363100
b00000101 &
#20376000
b00000101 &
#20404200
b00000101 &
#20411400
b00000101 &
#20439600
b00000101 &
#20446800
b00000101 &
#20480700
b00000101 &
#20487900
b00000101 &
#20516100
b00000101 &
#20523300
b00000101 &
#20551500
b00000101 &
#20558700
b00000101 &
#20595300
b00000101 &
#20602500
b00000101 &
#20630700
b00000101 &
#20637900
b00000101 &
#20642400
0%
#20666200
b00000101 &
#20678700
b00000110 &
#20679700
b00000110 &
#20708000
b00000110 &
#20716100
b00000110 &
#20744400
b00000110 &
#20752500
b00000110 &
#20786500
b00000110 &
#20794600
b00000110 &
#20822900
b00000110 &
#20831000
b00000110 &
#20859300
b00000110 &
#20867400
b00000110 &
#20901400
b00000110 &
#20909500
b00000110 &
#20937800
b00000110 &
#20945900
b00000110 &
#20974200
b00000110 &
#20988000
b00000110 &
#21016300
b00000110 &
#21024400
b00000110 &
#21052700
b00000110 &
#21060800
b00000110 &
#21094800
b00000110 &
#21102900
b00000110 &
#21131200
b00000110 &
#21139300
b00000110 &
#21167600
b00000110 &
#21175700
b00000110 &
#21209700
b00000110 &
#21217800
b00000110 &
#21246100
b00000110 &
#21254200
b00000110 &
#21282500
b00000110 &
#21296300
b00000110 &
#21324600
b00000110 &
#21332700
b00000110 &
#21361000
b00000110 &
#21369100
b00000110 &
#21403100
b00000110 &
#21411200
b00000110 &
#21439500
b00000110 &
#21447600
b00000110 &
#21475900
b00000110 &
#21484000
b00000110 &
#21518000
b00000110 &
#21526100
b00000110 &
#21554400
b00000110 &
#21562500
b00000110 &
#21590800
b00000110 &
#21604600
b00000110 &
#21635600
b00000110 &
#21643700
b00000110 &
#21672000
b00000110 &
#21680100
b00000110 &
#21714100
b00000110 &
#21722200
b00000110 &
#21750500
b00000110 &
#21758600
b00000110 &
#21786900
b00000110 &
#21795000
b00000110 &
#21829000
b00000110 &
#21837100
b00000110 &
#21865400
b00000110 &
#21873500
b00000110 &
#21907500
b00000110 &
#21915600
b00000110 &
#21943900
b00000110 &
#21952000
b00000110 &
#21980300
b00000110 &
#21988400
b00000110 &
#22022400
b00000110 &
#22030500
b00000110 &
#22058800
b00000110 &
#22066900
b00000110 &
#22095200
b00000110 &
#22103300
b00000110 &
#22137300
b00000110 &
#22145400
b00000110 &
#22173700
b00000110 &
#22181800
b00000110 &
#22215800
b00000110 &
#22223900
b00000110 &
#22252200
b00000110 &
#22260300
b00000110 &
#22288600
b00000110 &
#22296700
b00000110 &
#22330700
b00000110 &
#22338800
b00000110 &
#22367100
b00000110 &
#22375200
b00000110 &
#22403500
b00000110 &
#22417300
b00000110 &
#22445600
b00000110 &
#22453700
b00000110 &
#22482000
b00000110 &
#22490100
b00000110 &
#22524100
b00000110 &
#22532200
b00000110 &
#22560500
b00000110 &
#22568600
b00000110 &
#22596900
b00000110 &
#22605000
b00000110 &
#22641700
b00000110 &
#22649800
b00000110 &
#22678100
b00000110 &
#22686200
b00000110 &
#22714500
b00000110 &
#22728300
b00000110 &
#22756600
b00000110 &
#22764700
b00000110 &
#22793000
b00000110 &
#22801100
b00000110 &
#22835100
b00000110 &
#22843200
b00000110 &
#22871500
b00000110 &
#22879600
b00000110 &
#22907900
b00000110 &
#22916000
b00000110 &
#22950000
b00000110 &
#22958100
b00000110 &
#22986400
b00000110 &
#22994500
b00000110 &
#23022800
b00000110 &
#23036600
b00000110 &
#23064900
b00000110 &
#23073000
b00000110 &
#23101300
b00000110 &
#23109400
b00000110 &
#23143400
b00000110 &
#23151500
b00000110 &
#23179800
b00000110 &
#23187900
b00000110 &
#23216200
b00000110 &
#23224300
b00000110 &
#23258300
b00000110 &
#23266400
b00000110 &
#23294700
b00000110 &
#23302800
b00000110 &
#23331100
b00000110 &
#23344900
b00000110 &
#23373200
b00000110 &
#23381300
b00000110 &
#23409600
b00000110 &
#23417700
b00000110 &
#23451700
b00000110 &
#23459800
b00000110 &
#23488100
b00000110 &
#23496200
b00000110 &
#23524500
b00000110 &
#23532600
b00000110 &
#23566600
b00000110 &
#23574700
b00000110 &
#23603000
b00000110 &
#23611100
b00000110 &
